key_expansion_waveform.vcd
$date
	Mon Jul  1 13:10:15 2024
$end
$version
	Icarus Verilog
$end
$timescale
	1ps
$end
$scope module tb_key_expansion $end
$var wire 32 ! key_output [31:0] $end
$var reg 1 " clk $end
$var reg 8 # i [7:0] $end
$var reg 128 $ key_input [127:0] $end
$var integer 32 % mismatch_count [31:0] $end
$scope function T $end
$var integer 32 & m [31:0] $end
$var integer 32 ' n [31:0] $end
$upscope $end
$scope module ks $end
$var wire 8 ( i [7:0] $end
$var wire 128 ) key [127:0] $end
$var wire 62 * z [0:61] $end
$var reg 8 + index [7:0] $end
$var reg 32 , key_i [31:0] $end
$var reg 32 - ror1 [31:0] $end
$var reg 32 . ror3 [31:0] $end
$var reg 32 / tmp [31:0] $end
$var reg 32 0 tmp2 [31:0] $end
$scope function j $end
$var integer 32 1 m [31:0] $end
$var integer 32 2 n [31:0] $end
$upscope $end
$upscope $end
$scope task run_test $end
$var reg 128 3 initial_key [127:0] $end
$var reg 201 4 test_name [200:0] $end
$var integer 32 5 j [31:0] $end
$var integer 32 6 num_rounds [31:0] $end
$upscope $end
$upscope $end
$enddefinitions $end
#0
$dumpvars
b110 6
b100 5
b101010001100101011100110111010000100000010000110110000101110011011001010010000000110001 4
b11001000110000001000100010000000010010000100000000001000000000001100100011000000100010001000000001001000010000000000100000000 3
b100000 2
b100 1
bx 0
bx /
bx .
bx -
bx ,
b0 +
b11011011101011000110010111100000010010001010011100110100001111 *
bx )
b100 (
bx '
bx &
b0 %
bx $
b100 #
0"
bx !
$end
#5000
1"
#10000
0"
#15000
1"
#20000
0"
#25000
b11100001110100010110010001010110 !
b11100001110100010110010001010110 ,
b10111001001101001101010101011 -
b11010001110110001001100110010 0
b11001000110000001000100010 .
b10111001001101001101010101011 /
b11001000110000001000100010000000010010000100000000001000000000001100100011000000100010001000000001001000010000000000100000000 $
b11001000110000001000100010000000010010000100000000001000000000001100100011000000100010001000000001001000010000000000100000000 )
1"
#30000
0"
#35000
b1011001010011001101010110100010 !
b1011001010011001101010110100010 ,
b1 +
b10111111101010110011101101001111 -
b11010101001100100010110110001010 0
b11011100001110100010110010001010 .
b10111111101010110011101101001111 /
b11100001110100010110010001010110000110010001100000010001000100000000100100001000000000010000000000011001000110000001000100010000 $
b11100001110100010110010001010110000110010001100000010001000100000000100100001000000000010000000000011001000110000001000100010000 )
b101 #
b101 (
1"
#40000
0"
#45000
b10001101110111101011000010001010 !
b10001101110111101011000010001010 ,
b10 +
b1111011001010010100111001110110 -
b1010010001100011000101110100100 0
b1001011001010011001101010110100 .
b1111011001010010100111001110110 /
b1011001010011001101010110100010111000011101000101100100010101100001100100011000000100010001000000001001000010000000000100000000 $
b1011001010011001101010110100010111000011101000101100100010101100001100100011000000100010001000000001001000010000000000100000000 )
b110 #
b110 (
1"
#50000
0"
#55000
b10001110101110000000010110001001 !
b10001110101110000000010110001001 ,
b11 +
b1101000010111111110101101100100 -
b10110000011010101011001001000111 0
b1010001101110111101011000010001 .
b1101000010111111110101101100100 /
b10001101110111101011000010001010010110010100110011010101101000101110000111010001011001000101011000011001000110000001000100010000 $
b10001101110111101011000010001010010110010100110011010101101000101110000111010001011001000101011000011001000110000001000100010000 )
b111 #
b111 (
1"
#60000
0"
#65000
b11000010111110001010010000110001 !
b11000010111110001010010000110001 ,
b100 +
b11011100110101100011111110011010 -
b1101000100110111101010100010011 0
b110001110101110000000010110001 .
b11011100110101100011111110011010 /
b10001110101110000000010110001001100011011101111010110000100010100101100101001100110101011010001011100001110100010110010001010110 $
b10001110101110000000010110001001100011011101111010110000100010100101100101001100110101011010001011100001110100010110010001010110 )
b1000 #
b1000 (
1"
#70000
0"
#75000
b1001001111100100101110001010100 !
b1001001111100100101110001010100 ,
b101 +
b11101111010000010111011000001010 -
b10110101100000011010010000001100 0
b111000010111110001010010000110 .
b11101111010000010111011000001010 /
b11000010111110001010010000110001100011101011100000000101100010011000110111011110101100001000101001011001010011001101010110100010 $
b11000010111110001010010000110001100011101011100000000101100010011000110111011110101100001000101001011001010011001101010110100010 )
b1001 #
b1001 (
b1 %
1"
#80000
0"
#85000
b1001001111100100101110001010101 !
b1001001111100100101110001010101 ,
b0 +
b11101111010000010111011000001010 /
b100 5
b101010001100101011100110111010000100000010000110110000101110011011001010010000000110010 4
b100010010001000110011010001000101010101100110011101110000000000010001001000100011001101000100010101010110011001110111 3
b100 #
b100 (
b10 %
1"
#90000
0"
#95000
1"
#100000
0"
#105000
1"
#110000
0"
#115000
b1101011101100000001110011000101 !
b1101011101100000001110011000101 ,
b11010000000110101000010101001111 -
b1100000000100110000011001110101 0
b1100000000000100010010001000110 .
b11010000000110101000010101001111 /
b100010010001000110011010001000101010101100110011101110000000000010001001000100011001101000100010101010110011001110111 $
b100010010001000110011010001000101010101100110011101110000000000010001001000100011001101000100010101010110011001110111 )
1"
#120000
0"
#125000
b11100010010111000000101011010110 !
b11100010010111000000101011010110 ,
b1 +
b11101101100101101011100011000 -
b11101001001000110110010111101111 0
b10101101011101100000001110011000 .
b11101101100101101011100011000 /
b1101011101100000001110011000101000000000001000100100010001100110100010001010101011001100111011100000000000100010010001000110011 $
b1101011101100000001110011000101000000000001000100100010001100110100010001010101011001100111011100000000000100010010001000110011 )
b101 #
b101 (
1"
#130000
0"
#135000
b10001001110111010110101101010110 !
b10001001110111010110101101010110 ,
b10 +
b110010011101111111001011011101 -
b11011100010110101010001101101001 0
b11011100010010111000000101011010 .
b110010011101111111001011011101 /
b11100010010111000000101011010110011010111011000000011100110001010000000000010001001000100011001101000100010101010110011001110111 $
b11100010010111000000101011010110011010111011000000011100110001010000000000010001001000100011001101000100010101010110011001110111 )
b110 #
b110 (
1"
#140000
0"
#145000
b10011000001000001011010010110110 !
b10011000001000001011010010110110 ,
b11 +
b1100111110011100110100101111000 -
b10111010100010111011000110101111 0
b11010001001110111010110101101010 .
b1100111110011100110100101111000 /
b10001001110111010110101101010110111000100101110000001010110101100110101110110000000111001100010100000000000100010010001000110011 $
b10001001110111010110101101010110111000100101110000001010110101100110101110110000000111001100010100000000000100010010001000110011 )
b111 #
b111 (
1"
#150000
0"
#155000
b10111101101110111111000101011000 !
b10111101101110111111000101011000 ,
b100 +
b101001111101000001001001100000 -
b110001010110000001110001000000 0
b11010011000001000001011010010110 .
b101001111101000001001001100000 /
b10011000001000001011010010110110100010011101110101101011010101101110001001011100000010101101011001101011101100000001110011000101 $
b10011000001000001011010010110110100010011101110101101011010101101110001001011100000010101101011001101011101100000001110011000101 )
b1000 #
b1000 (
1"
#160000
0"
#165000
b1001100111111001110101011101001 !
b1001100111111001110101011101001 ,
b101 +
b1010001010111110001111111000011 -
b10011110011010100001010101111101 0
b10111101101110111111000101011 .
b1010001010111110001111111000011 /
b10111101101110111111000101011000100110000010000010110100101101101000100111011101011010110101011011100010010111000000101011010110 $
b10111101101110111111000101011000100110000010000010110100101101101000100111011101011010110101011011100010010111000000101011010110 )
b1001 #
b1001 (
1"
#170000
0"
#175000
b1001100111111001110101011101000 !
b1001100111111001110101011101000 ,
b0 +
b1010001010111110001111111000011 /
b100 5
b101010001100101011100110111010000100000010000110110000101110011011001010010000000110011 4
b10001001101010111100110111101111000000010010001101000101011001111000100110101011110011011110111100000001001000110100010101100111 3
b100 #
b100 (
1"
#180000
0"
#185000
1"
#190000
0"
#195000
1"
#200000
0"
#205000
b10111010000011010101010011100001 !
b10111010000011010101010011100001 ,
b1000100110100011110111001111011 -
b1111000100111101011010001010010 0
b11110001001101010111100110111101 .
b1000100110100011110111001111011 /
b10001001101010111100110111101111000000010010001101000101011001111000100110101011110011011110111100000001001000110100010101100111 $
b10001001101010111100110111101111000000010010001101000101011001111000100110101011110011011110111100000001001000110100010101100111 )
1"
#210000
0"
#215000
b11011011000001111010101000010100 !
b11011011000001111010101000010100 ,
b1 +
b10101101010100111001100000000110 -
b110110011000101110111111111011 0
b110111010000011010101010011100 .
b10101101010100111001100000000110 /
b10111010000011010101010011100001100010011010101111001101111011110000000100100011010001010110011110001001101010111100110111101111 $
b10111010000011010101010011100001100010011010101111001101111011110000000100100011010001010110011110001001101010111100110111101111 )
b101 #
b101 (
1"
#220000
0"
#225000
b1100101011100100001111001100000 !
b1100101011100100001111001100000 ,
b10 +
b10011011101011101010010011111011 -
b10010110010110011100010101101 0
b10011011011000001111010101000010 .
b10011011101011101010010011111011 /
b11011011000001111010101000010100101110100000110101010100111000011000100110101011110011011110111100000001001000110100010101100111 $
b11011011000001111010101000010100101110100000110101010100111000011000100110101011110011011110111100000001001000110100010101100111 )
b110 #
b110 (
1"
#230000
0"
#235000
b11011101001101010111010101001 !
b11011101001101010111010101001 ,
b11 +
b1101101111100101001110010111011 -
b10110110101000110001011100101101 0
b1100101011100100001111001100 .
b1101101111100101001110010111011 /
b1100101011100100001111001100000110110110000011110101010000101001011101000001101010101001110000110001001101010111100110111101111 $
b1100101011100100001111001100000110110110000011110101010000101001011101000001101010101001110000110001001101010111100110111101111 )
b111 #
b111 (
1"
#240000
0"
#245000
b1000001101110000110101100111101 !
b1000001101110000110101100111101 ,
b100 +
b100010010101100000000100001 -
b11111000011100110111111111000001 0
b100011011101001101010111010101 .
b100010010101100000000100001 /
b11011101001101010111010101001011001010111001000011110011000001101101100000111101010100001010010111010000011010101010011100001 $
b11011101001101010111010101001011001010111001000011110011000001101101100000111101010100001010010111010000011010101010011100001 )
b1000 #
b1000 (
1"
#250000
0"
#255000
b1111000111111100111101101100 !
b1111000111111100111101101100 ,
b101 +
b101011111001111001101010000100 -
b11001101010001010001001100000111 0
b10101000001101110000110101100111 .
b101011111001111001101010000100 /
b1000001101110000110101100111101000110111010011010101110101010010110010101110010000111100110000011011011000001111010101000010100 $
b1000001101110000110101100111101000110111010011010101110101010010110010101110010000111100110000011011011000001111010101000010100 )
b1001 #
b1001 (
1"
#260000
0"
#265000
b1111000111111100111101101101 !
b1111000111111100111101101101 ,
b0 +
b101011111001111001101010000100 /
b100 5
b101010001100101011100110111010000100000010000110110000101110011011001010010000000110100 4
b11111110110111001011101010011000011101100101010000110010000100001111111011011100101110101001100001110110010101000011001000010000 3
b100 #
b100 (
1"
#270000
0"
#275000
1"
#280000
0"
#285000
1"
#290000
0"
#295000
b10011000001011110111011011000011 !
b10011000001011110111011011000011 ,
b10001100001001011101100101110 -
b11100001000001110010110111001011 0
b11111110110111001011101010011 .
b10001100001001011101100101110 /
b11111110110111001011101010011000011101100101010000110010000100001111111011011100101110101001100001110110010101000011001000010000 $
b11111110110111001011101010011000011101100101010000110010000100001111111011011100101110101001100001110110010101000011001000010000 )
1"
#300000
0"
#305000
b110110110100111011111001001 !
b110110110100111011111001001 ,
b1 +
b111111110010011001010101100 -
b101010100011101110011001000 0
b1110011000001011110111011011000 .
b111111110010011001010101100 /
b10011000001011110111011011000011111111101101110010111010100110000111011001010100001100100001000011111110110111001011101010011000 $
b10011000001011110111011011000011111111101101110010111010100110000111011001010100001100100001000011111110110111001011101010011000 )
b101 #
b101 (
1"
#310000
0"
#315000
b10111000101011111100001110111101 !
b10111000101011111100001110111101 ,
b10 +
b110001000001000000111001010001 -
b11011110000001111111010001100001 0
b100000110110110100111011111001 .
b110001000001000000111001010001 /
b110110110100111011111001001100110000010111101110110110000111111111011011100101110101001100001110110010101000011001000010000 $
b110110110100111011111001001100110000010111101110110110000111111111011011100101110101001100001110110010101000011001000010000 )
b110 #
b110 (
1"
#320000
0"
#325000
b111001100001001000110010001011 !
b111001100001001000110010001011 ,
b11 +
b111000101001111100100111101110 -
b101111001110101000111010110100 0
b10110111000101011111100001110111 .
b111000101001111100100111101110 /
b10111000101011111100001110111101000001101101101001110111110010011001100000101111011101101100001111111110110111001011101010011000 $
b10111000101011111100001110111101000001101101101001110111110010011001100000101111011101101100001111111110110111001011101010011000 )
b111 #
b111 (
1"
#330000
0"
#335000
b110110110011110001110001001010 !
b110110110011110001110001001010 ,
b100 +
b1010001000111111001010101110100 -
b1100001111010101110011001011000 0
b1100111001100001001000110010001 .
b1010001000111111001010101110100 /
b111001100001001000110010001011101110001010111111000011101111010000011011011010011101111100100110011000001011110111011011000011 $
b111001100001001000110010001011101110001010111111000011101111010000011011011010011101111100100110011000001011110111011011000011 )
b1000 #
b1000 (
1"
#340000
0"
#345000
b1111000011010001011100000011011 !
b1111000011010001011100000011011 ,
b101 +
b10000001010011010011000000101110 -
b11111110011101100010000000110100 0
b1000110110110011110001110001001 .
b10000001010011010011000000101110 /
b110110110011110001110001001010001110011000010010001100100010111011100010101111110000111011110100000110110110100111011111001001 $
b110110110011110001110001001010001110011000010010001100100010111011100010101111110000111011110100000110110110100111011111001001 )
b1001 #
b1001 (
1"
#350000
0"
#355000
b1111000011010001011100000011010 !
b1111000011010001011100000011010 ,
b0 +
b10000001010011010011000000101110 /
b100 5
b101010001100101011100110111010000100000010000110110000101110011011001010010000000110101 4
b101001 6
b11001010111111101011101010111110110111101010110110111110111011111111111011011100101110101001100001110110010101000011001000010000 3
b100 #
b100 (
1"
#360000
0"
#365000
1"
#370000
0"
#375000
1"
#380000
0"
#385000
b111101111010010001011011000101 !
b111101111010010001011011000101 ,
b10110100010000101101101100101000 -
b100111100000110110110111001111 0
b11011001010111111101011101010111 .
b10110100010000101101101100101000 /
b11001010111111101011101010111110110111101010110110111110111011111111111011011100101110101001100001110110010101000011001000010000 $
b11001010111111101011101010111110110111101010110110111110111011111111111011011100101110101001100001110110010101000011001000010000 )
1"
#390000
0"
#395000
b11000100101110111001011101001001 !
b11000100101110111001011101001001 ,
b1 +
b11000101100110001101001000101100 -
b1111001000100001001110000110111 0
b10100111101111010010001011011000 .
b11000101100110001101001000101100 /
b111101111010010001011011000101110010101111111010111010101111101101111010101101101111101110111111111110110111001011101010011000 $
b111101111010010001011011000101110010101111111010111010101111101101111010101101101111101110111111111110110111001011101010011000 )
b101 #
b101 (
1"
#400000
0"
#405000
b101010000011110110110101101111 !
b101010000011110110110101101111 ,
b10 +
b1011010111010010110001111100 -
b11110010011010011100100001010111 0
b111000100101110111001011101001 .
b1011010111010010110001111100 /
b11000100101110111001011101001001001111011110100100010110110001011100101011111110101110101011111011011110101011011011111011101111 $
b11000100101110111001011101001001001111011110100100010110110001011100101011111110101110101011111011011110101011011011111011101111 )
b110 #
b110 (
1"
#410000
0"
#415000
b10000001111111011100001110011111 !
b10000001111111011100001110011111 ,
b11 +
b10110100111111001000011011011100 -
b11011000101010001111101101101000 0
b11100101010000011110110110101101 .
b10110100111111001000011011011100 /
b101010000011110110110101101111110001001011101110010111010010010011110111101001000101101100010111001010111111101011101010111110 $
b101010000011110110110101101111110001001011101110010111010010010011110111101001000101101100010111001010111111101011101010111110 )
b111 #
b111 (
1"
#420000
0"
#425000
b11101100110100001101000110011111 !
b11101100110100001101000110011111 ,
b100 +
b101110110001100011100010100111 -
b110100100001000010111100111010 0
b11110000001111111011100001110011 .
b101110110001100011100010100111 /
b10000001111111011100001110011111001010100000111101101101011011111100010010111011100101110100100100111101111010010001011011000101 $
b10000001111111011100001110011111001010100000111101101101011011111100010010111011100101110100100100111101111010010001011011000101 )
b1000 #
b1000 (
1"
#430000
0"
#435000
b10000111000110111010010001000111 !
b10000111000110111010010001000111 ,
b101 +
b10111100010111111100110011110010 -
b11010111100101010111011101011100 0
b11111101100110100001101000110011 .
b10111100010111111100110011110010 /
b11101100110100001101000110011111100000011111110111000011100111110010101000001111011011010110111111000100101110111001011101001001 $
b11101100110100001101000110011111100000011111110111000011100111110010101000001111011011010110111111000100101110111001011101001001 )
b1001 #
b1001 (
1"
#440000
0"
#445000
b11100011000010111111000001110 !
b11100011000010111111000001110 ,
b110 +
b11001001100100011110110010011100 -
b1110001000111101011011100010111 0
b11110000111000110111010010001000 .
b11001001100100011110110010011100 /
b10000111000110111010010001000111111011001101000011010001100111111000000111111101110000111001111100101010000011110110110101101111 $
b10000111000110111010010001000111111011001101000011010001100111111000000111111101110000111001111100101010000011110110110101101111 )
b1010 #
b1010 (
1"
#450000
0"
#455000
b1000110111100001011110100010011 !
b1000110111100001011110100010011 ,
b111 +
b111000111100101000000101110001 -
b101111010111001111111001011110 0
b11000011100011000010111111000001 .
b111000111100101000000101110001 /
b11100011000010111111000001110100001110001101110100100010001111110110011010000110100011001111110000001111111011100001110011111 $
b11100011000010111111000001110100001110001101110100100010001111110110011010000110100011001111110000001111111011100001110011111 )
b1011 #
b1011 (
1"
#460000
0"
#465000
b1011000010000100010001110101 !
b1011000010000100010001110101 ,
b1000 +
b11000001001110110101000010111 -
b11101111110001011011001111100101 0
b1101000110111100001011110100010 .
b11000001001110110101000010111 /
b1000110111100001011110100010011000111000110000101111110000011101000011100011011101001000100011111101100110100001101000110011111 $
b1000110111100001011110100010011000111000110000101111110000011101000011100011011101001000100011111101100110100001101000110011111 )
b1100 #
b1100 (
1"
#470000
0"
#475000
b10011011011001000001011001111011 !
b10011011011001000001011001111011 ,
b1001 +
b11100011100000000100110111000000 -
b10111101000000000111011010000000 0
b10100001011000010000100010001110 .
b11100011100000000100110111000000 /
b1011000010000100010001110101010001101111000010111101000100110001110001100001011111100000111010000111000110111010010001000111 $
b1011000010000100010001110101010001101111000010111101000100110001110001100001011111100000111010000111000110111010010001000111 )
b1101 #
b1101 (
1"
#480000
0"
#485000
b11001100110011001010000111000001 !
b11001100110011001010000111000001 ,
b1010 +
b101111010100100010000000110010 -
b110101100111000011111111011100 0
b1110011011011001000001011001111 .
b101111010100100010000000110010 /
b10011011011001000001011001111011000010110000100001000100011101010100011011110000101111010001001100011100011000010111111000001110 $
b10011011011001000001011001111011000010110000100001000100011101010100011011110000101111010001001100011100011000010111111000001110 )
b1110 #
b1110 (
1"
#490000
0"
#495000
b10010110101100111101010000100 !
b10010110101100111101010000100 ,
b1011 +
b10101011110110010011100001101011 -
b110010100100011101000001001101 0
b111001100110011001010000111000 .
b10101011110110010011100001101011 /
b11001100110011001010000111000001100110110110010000010110011110110000101100001000010001000111010101000110111100001011110100010011 $
b11001100110011001010000111000001100110110110010000010110011110110000101100001000010001000111010101000110111100001011110100010011 )
b1111 #
b1111 (
1"
#500000
0"
#505000
b1100001010101100000111000110110 !
b1100001010101100000111000110110 ,
b1100 +
b10010101101000011011010110111110 -
b11001001111101101100100101011 0
b10000010010110101100111101010000 .
b10010101101000011011010110111110 /
b10010110101100111101010000100110011001100110010100001110000011001101101100100000101100111101100001011000010000100010001110101 $
b10010110101100111101010000100110011001100110010100001110000011001101101100100000101100111101100001011000010000100010001110101 )
b10000 #
b10000 (
1"
#510000
0"
#515000
b11100100000011101011100110000010 !
b11100100000011101011100110000010 ,
b1101 +
b10000000100101010101000000000100 -
b111001100110000000000111 0
b11001100001010101100000111000110 .
b10000000100101010101000000000100 /
b1100001010101100000111000110110000100101101011001111010100001001100110011001100101000011100000110011011011001000001011001111011 $
b1100001010101100000111000110110000100101101011001111010100001001100110011001100101000011100000110011011011001000001011001111011 )
b10001 #
b10001 (
1"
#520000
0"
#525000
b1011010010011110010010101010011 !
b1011010010011110010010101010011 ,
b1110 +
b1101001011111000111101101101110 -
b1001110010101111010110110110100 0
b1011100100000011101011100110000 .
b1101001011111000111101101101110 /
b11100100000011101011100110000010011000010101011000001110001101100001001011010110011110101000010011001100110011001010000111000001 $
b11100100000011101011100110000010011000010101011000001110001101100001001011010110011110101000010011001100110011001010000111000001 )
b10010 #
b10010 (
1"
#530000
0"
#535000
b11100010001110011001101010101010 !
b11100010001110011001101010101010 ,
b1111 +
b1111000100000001111111010010 -
b1010000111111110101010011100 0
b1101011010010011110010010101010 .
b1111000100000001111111010010 /
b1011010010011110010010101010011111001000000111010111001100000100110000101010110000011100011011000010010110101100111101010000100 $
b1011010010011110010010101010011111001000000111010111001100000100110000101010110000011100011011000010010110101100111101010000100 )
b10011 #
b10011 (
1"
#540000
0"
#545000
b11111010110001001011111001110110 !
b11111010110001001011111001110110 ,
b10000 +
b1100100011011010100111110111100 -
b10111000010010011000101011010111 0
b1011100010001110011001101010101 .
b1100100011011010100111110111100 /
b11100010001110011001101010101010010110100100111100100101010100111110010000001110101110011000001001100001010101100000111000110110 $
b11100010001110011001101010101010010110100100111100100101010100111110010000001110101110011000001001100001010101100000111000110110 )
b10100 #
b10100 (
1"
#550000
0"
#555000
b1011100011011010010110110101100 !
b1011100011011010010110110101100 ,
b10001 +
b1000111100111000110101111010011 -
b10000101000101111011001010011101 0
b11011111010110001001011111001110 .
b1000111100111000110101111010011 /
b11111010110001001011111001110110111000100011100110011010101010100101101001001111001001010101001111100100000011101011100110000010 $
b11111010110001001011111001110110111000100011100110011010101010100101101001001111001001010101001111100100000011101011100110000010 )
b10101 #
b10101 (
1"
#560000
0"
#565000
b1111000110111101111101000111110 !
b1111000110111101111101000111110 ,
b10010 +
b11011101011011100010000010010000 -
b1101001101101000011111100011111 0
b10001011100011011010010110110101 .
b11011101011011100010000010010000 /
b1011100011011010010110110101100111110101100010010111110011101101110001000111001100110101010101001011010010011110010010101010011 $
b1011100011011010010110110101100111110101100010010111110011101101110001000111001100110101010101001011010010011110010010101010011 )
b10110 #
b10110 (
1"
#570000
0"
#575000
b10110010111101101011010011111111 !
b10110010111101101011010011111111 ,
b10011 +
b10101111001100001101000110101001 -
b110101110111110110000100110001 0
b11001111000110111101111101000111 .
b10101111001100001101000110101001 /
b1111000110111101111101000111110010111000110110100101101101011001111101011000100101111100111011011100010001110011001101010101010 $
b1111000110111101111101000111110010111000110110100101101101011001111101011000100101111100111011011100010001110011001101010101010 )
b10111 #
b10111 (
1"
#580000
0"
#585000
b1111010000100010100011100100000 !
b1111010000100010100011100100000 ,
b10100 +
b1111111001010100000011010101010 -
b10101010001100111111101100110011 0
b11110110010111101101011010011111 .
b1111111001010100000011010101010 /
b10110010111101101011010011111111011110001101111011111010001111100101110001101101001011011010110011111010110001001011111001110110 $
b10110010111101101011010011111111011110001101111011111010001111100101110001101101001011011010110011111010110001001011111001110110 )
b11000 #
b11000 (
1"
#590000
0"
#595000
b11101111110000000110100111100110 !
b11101111110000000110100111100110 ,
b10101 +
b1001100010100101011101110110111 -
b1110111100111001101001011011010 0
b1111010000100010100011100100 .
b1001100010100101011101110110111 /
b1111010000100010100011100100000101100101111011010110100111111110111100011011110111110100011111001011100011011010010110110101100 $
b1111010000100010100011100100000101100101111011010110100111111110111100011011110111110100011111001011100011011010010110110101100 )
b11001 #
b11001 (
1"
#600000
0"
#605000
b1011111101010001110000011100000 !
b1011111101010001110000011100000 ,
b10110 +
b11011000100010011110010100100010 -
b1101111000011101011100111000011 0
b11011101111110000000110100111100 .
b11011000100010011110010100100010 /
b11101111110000000110100111100110011110100001000101000111001000001011001011110110101101001111111101111000110111101111101000111110 $
b11101111110000000110100111100110011110100001000101000111001000001011001011110110101101001111111101111000110111101111101000111110 )
b11010 #
b11010 (
1"
#610000
0"
#615000
b100000111110011110110100000 !
b100000111110011110110100000 ,
b10111 +
b1001001000101100111011010100010 -
b1110001111001000101101100111100 0
b1011111101010001110000011100 .
b1001001000101100111011010100010 /
b1011111101010001110000011100000111011111100000001101001111001100111101000010001010001110010000010110010111101101011010011111111 $
b1011111101010001110000011100000111011111100000001101001111001100111101000010001010001110010000010110010111101101011010011111111 )
b11011 #
b11011 (
1"
#620000
0"
#625000
b11101000011001111000110100110 !
b11101000011001111000110100110 ,
b11000 +
b10011000111000100100100101111011 -
b11101111010000111000111001010010 0
b100000111110011110110100 .
b10011000111000100100100101111011 /
b100000111110011110110100000010111111010100011100000111000001110111111000000011010011110011001111010000100010100011100100000 $
b100000111110011110110100000010111111010100011100000111000001110111111000000011010011110011001111010000100010100011100100000 )
b11100 #
b11100 (
1"
#630000
0"
#635000
b11000010001100100101011110100101 !
b11000010001100100101011110100101 ,
b11001 +
b11010010000011011100000110111110 -
b10011100000010010111111011010100 0
b11000011101000011001111000110100 .
b11010010000011011100000110111110 /
b11101000011001111000110100110000001000001111100111101101000000101111110101000111000001110000011101111110000000110100111100110 $
b11101000011001111000110100110000001000001111100111101101000000101111110101000111000001110000011101111110000000110100111100110 )
b11101 #
b11101 (
1"
#640000
0"
#645000
b1000010001000101101001111100011 !
b1000010001000101101001111100011 ,
b11010 +
b11100010011101011100110011111110 -
b10111100010110010111011101010100 0
b10111000010001100100101011110100 .
b11100010011101011100110011111110 /
b11000010001100100101011110100101000111010000110011110001101001100000010000011111001111011010000001011111101010001110000011100000 $
b11000010001100100101011110100101000111010000110011110001101001100000010000011111001111011010000001011111101010001110000011100000 )
b11110 #
b11110 (
1"
#650000
0"
#655000
b10110100000011000011110001101011 !
b10110100000011000011110001101011 ,
b11011 +
b1001111111011001111111000110111 -
b1110101010010001010101111011010 0
b1101000010001000101101001111100 .
b1001111111011001111111000110111 /
b1000010001000101101001111100011110000100011001001010111101001010001110100001100111100011010011000000100000111110011110110100000 $
b1000010001000101101001111100011110000100011001001010111101001010001110100001100111100011010011000000100000111110011110110100000 )
b11111 #
b11111 (
1"
#660000
0"
#665000
b1100000110010011011001100110 !
b1100000110010011011001100110 ,
b11100 +
b11101110111010100011100000111100 -
b10110100101100111101000000101000 0
b1110110100000011000011110001101 .
b11101110111010100011100000111100 /
b10110100000011000011110001101011010000100010001011010011111000111100001000110010010101111010010100011101000011001111000110100110 $
b10110100000011000011110001101011010000100010001011010011111000111100001000110010010101111010010100011101000011001111000110100110 )
b100000 #
b100000 (
1"
#670000
0"
#675000
b1111111101111001010011111100001 !
b1111111101111001010011111100001 ,
b11101 +
b1000010011100010000111110111000 -
b10000011101000011111010100101111 0
b11000001100000110010011011001100 .
b1000010011100010000111110111000 /
b1100000110010011011001100110101101000000110000111100011010110100001000100010110100111110001111000010001100100101011110100101 $
b1100000110010011011001100110101101000000110000111100011010110100001000100010110100111110001111000010001100100101011110100101 )
b100001 #
b100001 (
1"
#680000
0"
#685000
b11101011110110110101000011000011 !
b11101011110110110101000011000011 ,
b11110 +
b1010110000001100111110011011100 -
b10011011111110111010100010010111 0
b101111111101111001010011111100 .
b1010110000001100111110011011100 /
b1111111101111001010011111100001000011000001100100110110011001101011010000001100001111000110101101000010001000101101001111100011 $
b1111111101111001010011111100001000011000001100100110110011001101011010000001100001111000110101101000010001000101101001111100011 )
b100010 #
b100010 (
1"
#690000
0"
#695000
b10001000001011000111010110 !
b10001000001011000111010110 ,
b11111 +
b1001001110100110111001001000001 -
b1110001011000100101110001111110 0
b1111101011110110110101000011000 .
b1001001110100110111001001000001 /
b11101011110110110101000011000011011111111011110010100111111000010000110000011001001101100110011010110100000011000011110001101011 $
b11101011110110110101000011000011011111111011110010100111111000010000110000011001001101100110011010110100000011000011110001101011 )
b100011 #
b100011 (
1"
#700000
0"
#705000
b10010011111000100010000010101100 !
b10010011111000100010000010101100 ,
b100000 +
b1100000000001001110100100110110 -
b10111111111110001011000111011011 0
b11000000010001000001011000111010 .
b1100000000001001110100100110110 /
b10001000001011000111010110111010111101101101010000110000110111111110111100101001111110000100001100000110010011011001100110 $
b10001000001011000111010110111010111101101101010000110000110111111110111100101001111110000100001100000110010011011001100110 )
b100100 #
b100100 (
1"
#710000
0"
#715000
b11000101001101111100011010100001 !
b11000101001101111100011010100001 ,
b100001 +
b1000101011101001001111010111101 -
b1111001101001110001010011010110 0
b10010010011111000100010000010101 .
b1000101011101001001111010111101 /
b10010011111000100010000010101100000000100010000010110001110101101110101111011011010100001100001101111111101111001010011111100001 $
b10010011111000100010000010101100000000100010000010110001110101101110101111011011010100001100001101111111101111001010011111100001 )
b100101 #
b100101 (
1"
#720000
0"
#725000
b110011111000011100001010111100 !
b110011111000011100001010111100 ,
b100010 +
b100111110001010110110110000011 -
b111010100001100100100100000010 0
b111000101001101111100011010100 .
b100111110001010110110110000011 /
b11000101001101111100011010100001100100111110001000100000101011000000001000100000101100011101011011101011110110110101000011000011 $
b11000101001101111100011010100001100100111110001000100000101011000000001000100000101100011101011011101011110110110101000011000011 )
b100110 #
b100110 (
1"
#730000
0"
#735000
b1100010100011100101101010101100 !
b1100010100011100101101010101100 ,
b100011 +
b10011111010100010001010010000110 -
b10101100111100001100011111011 0
b10000110011111000011100001010111 .
b10011111010100010001010010000110 /
b110011111000011100001010111100110001010011011111000110101000011001001111100010001000001010110000000010001000001011000111010110 $
b110011111000011100001010111100110001010011011111000110101000011001001111100010001000001010110000000010001000001011000111010110 )
b100111 #
b100111 (
1"
#740000
0"
#745000
b1110010001101010001011111 !
b1110010001101010001011111 ,
b100100 +
b1101101110101010000101100001110 -
b1001001011001100000110111110100 0
b10001100010100011100101101010101 .
b1101101110101010000101100001110 /
b1100010100011100101101010101100001100111110000111000010101111001100010100110111110001101010000110010011111000100010000010101100 $
b1100010100011100101101010101100001100111110000111000010101111001100010100110111110001101010000110010011111000100010000010101100 )
b101000 #
b101000 (
1"
#750000
0"
#755000
b111111001000110101110001 !
b111111001000110101110001 ,
b100101 +
b111010001101001011010000101100 -
b11010011110110001101100000110111 0
b11100000001110010001101010001011 .
b111010001101001011010000101100 /
b1110010001101010001011111011000101000111001011010101011000011001111100001110000101011110011000101001101111100011010100001 $
b1110010001101010001011111011000101000111001011010101011000011001111100001110000101011110011000101001101111100011010100001 )
b101001 #
b101001 (
1"
#760000
0"
#765000
b10101111110001110001001111000011 !
b10101111110001110001001111000011 ,
b100110 +
b1100011110110010010111010000011 -
b1000010100100011100101100000010 0
b100000000111111001000110101110 .
b1100011110110010010111010000011 /
b111111001000110101110001000000011100100011010100010111110110001010001110010110101010110000110011111000011100001010111100 $
b111111001000110101110001000000011100100011010100010111110110001010001110010110101010110000110011111000011100001010111100 )
b101010 #
b101010 (
1"
#770000
0"
